{
    "db": {
        "test": "mongodb://mongo:27017/case-intake",
        "prod": "mongodb://mongo:27017/case-intake",
        "dev": "mongodb://mongo:27017/case-intake"
    },
    "port": {
        "test": 4001,
        "prod": 3001,
        "dev": 8089
    }
}


